Scraping the Pasta Academy
…
Tidying Data

We wouldn’t eat raw pasta, and we won’t want to work with raw_pasta as it currently exists. Lets use the tidyverse to tidy this data up a bit.

First, lets get rid of some of the dodgy formatting — we’ll drop the \r, vertical bars, question marks, and the PASTA ACADEMY branding from all character columns.

pasta <- 
  raw_pasta |>
  mutate(across(where(is.character), 
                ~ str_remove_all(.x, "PASTA ACADEMY™|\r|\\||\\?") |> 
                  str_squish()))
pasta

# A tibble: 237 × 5
   name                              date             price fully_booked page_id
   <chr>                             <chr>            <chr> <chr>          <int>
 1 FARRINGDON TASTE OF VENICE        Friday January … £68.… BOOK NOW           1
 2 - BONHILL STREET TASTE OF BOLOGNA Friday January … £68.… SEE INFO           1
 3 FARRINGDON BEGINNERS CLASS        Friday January … £68.… BOOK NOW           1
 4 FARRINGDON MORNING BEGINNERS      Saturday 6th Ja… £68.… SEE INFO           1
 5 FARRINGDON TASTE OF TUSCANY       Saturday 6th Ja… £68.… SEE INFO           1
 6 FARRINGDON TASTE OF ROME          Saturday Januar… £68.… SEE INFO           1
 7 FARRINGDON BEGINNERS CLASS        Saturday Januar… £68.… SEE INFO           1
 8 FARRINGDON MORNING BEGINNERS      Sunday 7th Janu… £68.… BOOK NOW           1
 9 FARRINGDON TASTE OF NAPOLI        Sunday January … £68.… SEE INFO           1
10 BONHILL STREET TASTE OF NAPOLI    Sunday January … £68.… BOOK NOW           1
# ℹ 227 more rows

An easier step — lets format the price as numeric data, and fully_booked as logical. Lets also make name all lower-case.

pasta <-
  pasta |> 
  mutate(name = tolower(name),
         price = parse_number(price),
         fully_booked = if_else(fully_booked == "SEE INFO", T, F))

pasta

# A tibble: 237 × 5
   name                              date             price fully_booked page_id
   <chr>                             <chr>            <dbl> <lgl>          <int>
 1 farringdon taste of venice        Friday January …    68 FALSE              1
 2 - bonhill street taste of bologna Friday January …    68 TRUE               1
 3 farringdon beginners class        Friday January …    68 FALSE              1
 4 farringdon morning beginners      Saturday 6th Ja…    68 TRUE               1
 5 farringdon taste of tuscany       Saturday 6th Ja…    68 TRUE               1
 6 farringdon taste of rome          Saturday Januar…    68 TRUE               1
 7 farringdon beginners class        Saturday Januar…    68 TRUE               1
 8 farringdon morning beginners      Sunday 7th Janu…    68 FALSE              1
 9 farringdon taste of napoli        Sunday January …    68 TRUE               1
10 bonhill street taste of napoli    Sunday January …    68 FALSE              1
# ℹ 227 more rows
…
  # parse date as date-time
  mutate(date = lubridate::parse_date_time(date, 
                                           orders = c("BdY HM", "dBY HM"))) |>
  
  # drop date
  select(-day)

pasta

# A tibble: 237 × 5
   name                           date                price fully_booked page_id
   <chr>                          <dttm>              <dbl> <lgl>          <int>
 1 farringdon taste of venice     2024-01-05 17:00:00    68 FALSE              1
 2 - bonhill street taste of bol… 2024-01-05 18:30:00    68 TRUE               1
 3 farringdon beginners class     2024-01-05 20:30:00    68 FALSE              1
 4 farringdon morning beginners   2024-01-06 10:00:00    68 TRUE               1
 5 farringdon taste of tuscany    2024-01-06 13:30:00    68 TRUE               1
 6 farringdon taste of rome       2024-01-06 17:00:00    68 TRUE               1
 7 farringdon beginners class     2024-01-06 20:30:00    68 TRUE               1
 8 farringdon morning beginners   2024-01-07 10:00:00    68 FALSE              1
 9 farringdon taste of napoli     2024-01-07 13:30:00    68 TRUE               1
10 bonhill street taste of napoli 2024-01-07 13:30:00    68 FALSE              1
# ℹ 227 more rows

Using the data

Now that the data is in a tidy format, lets find out when the available beginner courses are being held. Evenings are also our preference:

potential_classes <- 
  pasta |> 
  filter(str_detect(name, "beg"),
         lubridate::hour(date) > 14,
         !fully_booked)

potential_classes

# A tibble: 40 × 5
   name                           date                price fully_booked page_id
   <chr>                          <dttm>              <dbl> <lgl>          <int>
 1 farringdon beginners class     2024-01-05 20:30:00    68 FALSE              1
 2 farringdon beginners class     2024-01-17 18:30:00    68 FALSE              2
 3 farringdon beginners class     2024-01-20 20:30:00    68 FALSE              2
 4 farringdon beginners class     2024-01-25 18:30:00    68 FALSE              3
 5 farringdon beginners class     2024-01-26 20:30:00    68 FALSE              3
 6 farringdon beginners class     2024-01-27 20:30:00    68 FALSE              3
 7 farringdon beginners class     2024-02-02 20:30:00    68 FALSE              4
 8 farringdon beginners class     2024-02-03 20:30:00    68 FALSE              4
 9 - bonhill street beginners cl… 2024-02-09 18:30:00    68 FALSE              4
10 farringdon beginners class     2024-02-10 20:30:00    68 FALSE              5
# ℹ 30 more rows

And there they are!

Just as we now have the data to hand, lets see what some common themes are in the classes. Disregarding words that aren’t particularly unique or descriptive like “taste”, “beginners”, “class”, “morning”, we can learn that there seems to be a lot inspired by the cuisines of Puglia, Rome, and Sardinia.

counts <-
  pasta |> 
  tidytext::unnest_tokens(word, name) |> 
  anti_join(tidytext::get_stopwords()) |> 
  count(word, sort = T)

counts

# A tibble: 38 × 2
   word           n
   <chr>      <int>
 1 farringdon   167
 2 taste        121
 3 beginners     81
 4 bonhill       67
 5 class         66
 6 street        60
 7 pasta         35
 8 morning       31
 9 advanced      16
10 fresh         15
# ℹ 28 more rows
…
