Web Scraping QI Guests
…
theme_set(theme_minimal(base_size = 14))

# get all tables from wikipedia
tbls <-
  read_html("https://en.wikipedia.org/wiki/List_of_QI_episodes") %>%
  html_table()
```

The first table is a sort of “meta-table” of all of the different series. Those unfamiliar with QI will note that the series are labelled with letters rather than numbers, as the trivia topics are themed around each letter. There are some specials related to annual televised charity events in the UK (Sports Relief, Comic Relief, etc.).

```{r}
tbls[[1]]
```

# A tibble: 25 × 5
   Series Episodes Episodes `Originally aired`             `Originally aired`   
   <chr>  <chr>    <chr>    <chr>                          <chr>                
 1 Series Episodes Episodes First aired                    Last aired           
 2 Pilot  Pilot    Pilot    Unaired                        Unaired              
 3 A      12       12       11 September 2003 (2003-09-11) 23 December 2003 (20…
 4 B      12       12       8 October 2004 (2004-10-08)    17 December 2004 (20…
 5 C      12       12       30 September 2005 (2005-09-30) 9 December 2005 (200…
 6 D      13       13       29 September 2006 (2006-09-29) 15 December 2006 (20…
 7 E      13       13       21 September 2007 (2007-09-21) 14 December 2007 (20…
 8 F      12       12       14 November 2008 (2008-11-14)  21 March 2009 (2009-…
 9 G      18       18       26 November 2009 (2009-11-26)  16 April 2010 (2010-…
10 H      18       18       17 September 2010 (2010-09-17) 2 May 2011 (2011-05-…
# ℹ 15 more rows
…
